{
  "area": [
    {
      "height": 18,
      "ypos": 738,
      "xpos": 745,
      "width": 19,
      "type": "match"
    }
  ],
  "properties": [],
  "tags": [
    "DESKTOP-kde",
    "desktop_package_tool_update"
  ]
}